﻿Country;CompanySort;Account;AccountName1;Telephone1;Email1
Philippines;AG        ;ADDTECH PH Muntinlupa City (Metro Manila) ;Additional Technics;+63 918 9105409;info@add-tech.net
Korea;AG;AG_HTI;HTI Corporation;+82 31 719 3649;jchong@htic.co.kr
Algeria;AG        ;ALPHA APHRO TN Hammamet;ALPHA APHRO TN Hammamet;+216 27106744;abdelkaderamraoui866@yahoo.fr
Bosnia Herz;AG;ALTERA BA Banja Luka;ALTERA d.o.o.;+387 51 434310;dsucevic@altera.ba
Nigeria;AG;AMSA WA_HV;All Manufacturing Solution Africa;+234 809 049 0918;shakirat.oyedepo@amsa.com.ng
Argentina;AG        ;ARGENPAR AR San Isidro - Buenos Aires;Argenpar S.A.;+5411 4765-8020;argenpar@argenpar.com.ar
Turkey;AG        ;AR-KOM TR Uskudar / Istanbul;AR-KOM S.A;+90 216 55775121;arkom@arkommakine.com
Peru;AG        ;BAECHLER PE Santiago del Surco;L. + J. Baechler Ingenieros S.A.;+511 2718900;rbaechler@baechleringenieros.com
United States of America;AG        ;BaggingGuys;BaggingGuys;+1 267 218 0698;Matt@baggingguys.com
United States of America;AG        ;BAY AREA PACKAGING US Lafayette;Bay Area Packaging;+1 925 933 8700;Scott@baypack.com
Israel;AG        ;BERLIN TECHNOLOGIES IL Yavne;Berlin Technologies;+972 8 9402357;mail@berlintech.co.il
Mexico;AG;BopatecMx;Bopatec S.A. de C.V. ;+52 (55) 1163 1928 - 29;rbarreda@bopatec.com
Ukraine;AG        ;BOROVYKOV UA Kiev;FOP Borovykov A.O.;+380 44 209 80 25;ABorovikov@gmail.com
United Kingdom;AG        ;BRAMIGK GB Chelmsford;BRAMIGK AND COMPANY;+44 1245 477616;Bramigk@aol.com
United States of America;AG        ;CAPPER US Marietta;Capper McCall;+1 770 422 8500;Sales@Cappermccall.com
Canada;AG        ;CHARLES DOWNER & CO CA Richmond Hill;Charles Downer & Co Ltd.;+1 905 882 2222;JDowner@cdowner.com
Venezuela;AG        ;CHEMOTEX VE Caracas;Chemotex Internacional S.A.;+58 212 266 4663;rf@chemotex-sa.com
Greece;AG        ;COCALIS GR Kifissia - Athens;J. A. Cocalis PCC;+30 (210) 8013174;info@cocalis.gr
United States of America;AG        ;CURTIS US Ballwin;Curtis Packaging Machinery Inc.;+1 636 386 7872;JHendrix@Curtispack.com
Sri Lanka;AG        ;CXL LK Colombo 4;CXL Techno;+94 1 555302;chnlx@lanka.com.lk
China P. R.;AG        ;DALTON CN Shanghai;Dalton Machinery & Electronics Co., Ltd.;+86 (0)21 6150 5503;md@dalton-corp.com
Bangladesh P. R.;AG        ;DREKS BD Dhaka;Dreks Associates;+880 2-9101853 / 54 / 55;Wahid@dreks.net
Portugal;AG        ;DT INTERNACIONAL PT BARCARENA;DT INTERNACIONAL PT Barcarena;+351 214 219 300;Info@dtinternacional.com
Greece;AG        ;ELCHEMA GR Melissia;Elchema;+30 210 810 3354;elchema@elchema.gr
United States of America;AG        ;EXCEL US Keizer;Excel Packaging Machinery;+1 503 585 7358;vern@excelpackagingsystems.com
Pakistan;AG        ;FACTDATE ENGINEERING (PVT) LTD PK Karatschi;Factdate Engineering Pvt Ltd.;+92 21 4385396-8;info@factdate.com
Iran;AG2       ;FARATEIN IR Tehran ;Faratein Co.S.K.;+98 21 8877 3244;sales@faratein.com
Malaysia;AG        ;FIRMTEC MY Selangor;FIRMTEC ENGINEERING (M) SDN. BHD.;+603 80762577;info@firmtec.com.sg
Uruguay;AG        ;FRAGOL UY Montevideo;Fragol Ltda.;+598 2 9020329;fgoldfinger@fragol.net
Austria;AG        ;FUELLPACK AT Ternitz_PH;Füllpack PVT GmbH;+43 664 8192116;Isa.Alkan@fuellpack.com
Poland;AG3       ;GAL PL Warszawa;Przedsiebiorstwo Przedstawicielskie GAL;+48 22 8497843;GAL@galpp.pl
Russian Federat;AG        ;GECONATEC RU Moskau;GeconaTEC GmbH;+7 495 902 64 52;moskau@geconatec.com
Ukraine;AG        ;GECONATEC_Ukraine;GeconaTEC GmbH;+380 44 390 42/25;kiew@geconatec.com
Thailand;AG        ;GREATER PACK TH Bangkok;Greater Pack Co. Ltd.;+66 2 6427 501-3;sathit@greaterpack.com
Italy;AG        ;GUARNERIO & MANTELLI IT Milano;Guarnerio & Mantelli s.r.l.;+39 (0331) 782018;info@g-m.it
Belgia;AG;H&C BE Brasschaat;H&C Verduyn;+32 3 650 11 50;info@hcverduyn.be
Korea;AG;HAKOPLAN KR Seoul;HAKOPLAN;+82 2-477-3615;hakoplan@hakoplan.net
Israel;AG        ;HIRSHBERG IL Herzlia;Hirshberg Brothers & Co. Pharma Applications;+97 2 99 52 16 59;Michael@hb.co.il
Chile;AG        ;IMAQSA CL Las Condes - Santiago;IMAQSA Ingenieria Y Maquinarias;+56 2 2224 5550;info@imaqsa.cl
Spain;AG        ;IMCO ES Barcelona;Representaciones IMCO, S.A.;+34  93 457 28 00;Imco@imco.es
Portugal;AG        ;IMCO-PT;Representaciones IMCO, S.A.;+34 93 457 28 00;Imco@imco.pt
Philippines;AG        ;IMPRESSIVE PH Pasig City;Impressive Business Center;+63 2 586-2545;impressive_business_center@yahoo.com
Pakistan;AG;IMS PK Karachi;Integrated Management Services (Pvt) Ltd;+92 21 352949 71 / 72;info@imspk.com
Rumania;AG        ;INTERDI RO Bucharest;Interdi Line SRL;+40 311 075 916;Diana@interdi.ro
Turkey;AG        ;INTERKOM TR Gayrettepe - Istanbul;INTERKOM Dis Ticaret A.S.;+90 212 275 0660;interkom@interkom.com.tr
United States of America;AG        ;JAFFCO US Wakefield;Jaffco Packaging Machinery;+1 610 517 1028;Bob@jaffcopkg.com
Indonesia;AG        ;JANTAN SETIA ID Tangerang ;P.T. Jantan Setia Sakti;+62 21 5388 308;HF-Adria@jssjakarta.co.id
United States of America;AG        ;John_Glenn_Associates;John Glenn & Associates;+1 714 234 7049;John@johnglennandassociates.com
United States of America;AG        ;Johnny Rullan & Company;Johnny Rullan & Company;+1 787 789 3050;Juanjose@johnnyrullan.com
Malta;AG;Josef Micallef;Josef Micallef;+356 9947 6328;jmicallef74@hotmail.com
Denmark;AG        ;KAFEKO DK Korsør;Kafeko Danmark;+45 5128 5090;kafeko@kafekonordic.com
Estonia;AG        ;KAFEKO EE Tartumaa;Kafeko Baltic OÜ;+372 730 7814;Toomas.Murulo@kafeko.ee
Finland;AG        ;KAFEKO FI Espoo;Kafeko Oy;+358 941 31 5400;kafeko@kafekonordic.com
Lithuania;AG        ;KAFEKO LT Kaunas;Kafeko UAB;+370 (37) 322420;kafeko@kafeko.lt
Latvia;AG        ;KAFEKO LV Riga;KAFEKO BALTIC SIA;+371 67 369676;kafeko@kafeko.lv
Norway;AG2       ;KAFEKO NO Oslo;Kafeko AS;+47 924 960 41;kafeko@kafekonordic.com
Sweden;AG        ;KAFEKO SE Karlstad;Kafeko AB;+46 54 10 14 00;kafeko@kafekonordic.com
Egypt;AG2       ;KAMA EG Cairo ;KAMA Trading;+20 (2) 273 5564;Khalil.Zemokhol@kama.com.eg
India;AG        ;KLENZAIDS IN Mumbai;Klenzaids Contamination Controls Pvt. Ltd.;+91-22-6115 6215;info@klenzaids.com
United States of America;SY4       ;Kliklok-Woodman_US;Kliklok, LLC;+1 770 981 5200;kliklokcorporation@syntegon.com
Poland;AG;KOLAKOWSKI PL Piastów;B. Kolakowski Sp. z o. o.;+48 602 235 927;B.Kolakowski@bkolakowski.pl
Brazil;AG        ;KOMATEC BR São Paulo;KOMATEC;+55 (11) 5071-2022;komatec@komatec.com.br
Turkey;AG        ;KURTEKS TR Kadiköy;Kurteks Dis Tic.Ve Dan. Ltd.Sti.;+90 216 3498561;kurteks@kurteksfarma.com
Slovenia;AG        ;LAMATI SI Trzin;Lamati zastopstva in trgovina d.o.o.;+386 1 56 44 187;info@lamati.si
United States of America;AG        ;Lemmel-Neill Associates, Inc.;Lemmel-Neill Associates, Inc.;+1 214 819 9366;inbox@lemmel-neill.com
Colombia;AG        ;LESIM CO Bogotá;LESIM S.A.;+57 1 618 5508;Lesim@lesim.com
Colombia;AG        ;MULTI-TEC CO Bogota ;Multi-Tec;+57 1 6377735;general@multi-tec.biz
Canada;AG        ;MYERS CA Markham;m&m packaging associates ltd.;+1 416 399-5300;John@mandmpackaging.com
Taiwan;AG        ;NECKAR TW Taipei;Neckar Co., Ltd.;+886 2 8780 1176;Neckar.Taiwan@gmail.com
Thailand;AG        ;NEO UNICAP TH Prawet, Bangkok;NEO UNICAP Co. Ltd.;+66 2 366 0562-5;neounicapbangkok@neounicap.com
Spain;AG        ;NETSTERIL ES Montcada i Reixac (Barcelona);Netsteril, S.L.;+34 935 554 063;info@netsteril.com 
United States of America;AG        ;Nevco LTD;Nevco LTD;+1 714 535 0334;sales@nevcoltd.com
Australia;AG        ;NUPAC AU Mentone;NUPAC Industries Pty. Ltd.;+61 3 9584 8111;info@nupac.com.au
Taiwan;AG        ;PACKINALL TW Taipei;Packinall International (Taiwan) Ltd.;+886 2 2556 0283;sales@packinall.com
Switzerland;AG        ;PACS_Bandsealer;Syntegon Technology Services AG;+41 58 674 6666;infobandsealer@syntegon.com
Iran;AG1       ;PARSTAJ IR Tehran;Parsian Tajer Machine Trading & Service co;+98 21 88175197;Saro.Rostami@parstaj.com
Australia;AG        ;PERFORM AU Melbourne;PerForm Packaging Solutions  Pty. Ltd.;+61 3 98742858;chrisb@performps.com.au
United Kingdom;AG        ;PHARMASERVE GB Whitwick;BV PHARMASERVE LTD;+44 (0)7824 304260;Bernard.Quinn@bvpserve.com
United Kingdom;AG        ;PHARMASERVE GB Whitwick_IR;BV PHARMASERVE LTD;+353 (0)8777 52239;Bernard.Quinn@bvpserve.com
Vietnam;AG        ;PHE PROCESS VN Ho Chi Minh City;P.H.E. Process Ltd.;+848-7300 1018;Hieudan.Pham@pheprocess.com
Austria;AG1       ;POLO AT Wien;Polo Handels AG;+43 1 712 70 90;office@polo-ag.com
Belarus;AG        ;POLO_Baltic_States;POLO Handels AG - Baltic States;+370 5 274 27 47;office-lt@polo-ag.com
Chzech;AG        ;POLO_Bohemia;POLO Bohemia s.r.o.;+420 38 7713 236;office-cz@polo-ag.com
Bulgaria;AG        ;POLO_Bulgaria;POLO Handels AG - Bulgaria;+359 2 852 42 83;office-bg@polo-ag.com
Croatia;AG1       ;POLO_Croatia_CF;POLO HANDELS AG Podru?nica Zagreb;+385 1 615 14 60;office-hr@polo-ag.com
Croatia;AG        ;POLO_Croatia_PH;POLO HANDELS AG Podru?nica Zagreb;+385 1 615 14 60;office-hr@polo-ag.com
Hungaria;AG        ;POLO_Hungaria;POLO Kereskedelmi Kft.;+36 1 203 92 86;office-hu@polo-ag.com
Poland;AG        ;POLO_Poland;POLO Polska Sp. z o.o.;+48 33 811 82 18;office-pl@polo-ag.com
Romania;AG        ;POLO_Romania;S.C. POLO AG ROMANIA S.R.L.;+40 369 452 315 | <b>Mobile:</b> +40 745 024 975;m.duta@polo-ag.com
Russia;AG        ;POLO_Russia;POLO Handels AG - Russia;+7 495 232 22 26;office-ru@polo-ag.com
Serbia;AG        ;POLO_Serbia;POLO HANDELS AG -Serbia;+381 63 316484;office-srb@polo-ag.com
Slovakia;AG        ;POLO_Slovakia;POLO Slovakia s.r.o.;+421 2 44 64 00 22;office-sk@polo-ag.com
Ukraine;AG        ;POLO_Ukraine;POLO Handels AG - Ukraine;+380 44 224 74 45;office-ua@polo-ag.com
Egypt;SY;PPC EA WA HV;PPC (EA) Ltd.; +254 (790) 206622;John.Abisai@ppc-ea.com
Belgium;AG        ;PROCONDI BE Duffel;Procondi bvba;+32 (14) 707130;B.Laeremans@procondi.com
Iran;AG1       ;PUYAN IR Teheran;Puyan;+98 21 22222543 | Mobil: +98 9121210791 | +49 171 5830080;trading@puyanco.org
Switzerland;AG        ;RIRU CH Zürich;RIRU INTER LTD;+41 443833780;Stauffer@riru.ch
United States of America;AG        ;RPMI US Lebanon;RPMI Packaging Inc.;+1 513 398 4040;RHHillerich@rpmipackaging.com
China;AG        ;SINOMACH CN Shanghai;Shanghai SinoMach Pharmaceutical;+86 21 54 306 713;office@sinomach.com.cn
Hong Kong;AG        ;SINOMACH HK Kowloon;SinoMach Technologies Limited;+852 2243 6000;sinomach@sinomach.com
Mexico;AG1       ;SPC MX México, D.F.;SPC Representaciones S.A. de C.V.;+52 (55) 5207 8007;CSeidel@spcmexico.com.mx
Switzerland;AG1       ;STÄHLI CH Laufen;Stähli Industrieberatung GmbH;+41 61 534 0172;info@stx.ch
Switzerland;SY;SYN-PA-CF;Syntegon Technology;+41 58 674 7542;packaging-cf@syntegon.com
USA;AG        ;SYN-PA-CF-AME-01;Syntegon Technology;+1 715 243-2298 ;SalesFood.NorthernAmerica@Syntegon.com
CHINA;AG1       ;SYN-PA-CF-CHINA-01;Syntegon Technology;+41 58 674 7542 ;SalesFood.China@Syntegon.com
EMEA;AG        ;SYN-PA-CF-EMEA-01;Syntegon Technology;+41 58 674 7542 ;SalesFood.EMEA@Syntegon.com
Germany;SY;SYN-PA-CF-MCT;Syntegon Technology;+49 2689 9434 0;info.makat@syntegon.com
Germany;SY;SYN-PA-CF-MCT-01;Syntegon Technology;+49 2689 9434 39;Andreas.Schoenke@syntegon.com
Germany;SY;SYN-PA-CF-MCT-02;Syntegon Technology;+49 2689 9434 979;Lutz.Blessing@syntegon.com
Germany;SY;SYN-PA-CF-MCT-03;Syntegon Technology;+49 2689 9434 904;Joerg.Hartwig@syntegon.com
Germany;SY;SYN-PA-CF-MCT-04;Syntegon Technology;+49 2689 9434 972;Gerd-Volker.Preidt@syntegon.com
Germany;SY;SYN-PA-CF-MCT-05;Syntegon Technology;+49 2689 9434 958;Olaf.Heinicke@syntegon.com
Brazil;SY;SYN-PA-CF-PABR;Syntegon Tecnologia de Embalagem Ltda.;+55 11 2117-6800;pabr@syntegon.com 
Switzerland;SY;SYN-PA-CF-PACB;Syntegon Packaging Systems AG (Sigpack);+41 58 674 10 00 ;sales.packaging-bng@syntegon.com
Singapore;SY;SYN-PA-CF-PACB-SG;Syntegon Packaging Systems AG (Sigpack);+66 (2)7143658;Adrian.Mueller1@syntegon.com
United States of America;SY2       ;SYN-PA-CF-PACB-USA;Syntegon Packaging Systems AG (Sigpack);+1 919-501-2920;info.packaging-bng@syntegon.com
Germany;SY;SYN-PA-CF-PADA;Ampack GmbH;+49 8231 6005-0;ampack@syntegon.com
Germany;SY;SYN-PA-CF-PADR;Syntegon Packaging Technology GmbH (Paal/Elematic direct);+49 7151 7007-0;info.packaging-rem@syntegon.com
United States of America;SY3       ;SYN-PA-CF-PADR-USA;Syntegon Packaging Technology GmbH (Paal/Elematic);+1 774 364 1916;Scott.Low@syntegon.com
Egypt;SY;SYN-PA-CF-PAEG;Syntegon Technology Ltd.;+20 (2)2265-0920 | <b>Mobile:</b> +20(12)0000 9920;Nourhane.Sameh@syntegon.com
Egypt;SY;SYN-PA-CF-PAEG2;Syntegon Technology Ltd.;+212 656 99 00 70;Noureddine.ElOuatani@syntegon.com
France;SY;SYN-PA-CF-PAFR;"Syntegon Technology SAS";+33 388 20 86 32;packaging-ph@syntegon.com
United Kingdom;SY;SYN-PA-CF-PAGB;Syntegon Technology Ltd.;+44 1332 626 262;service.packaging.uk@syntegon.com
India;SY;SYN-PA-CF-PAIV;Syntegon Technology India Private Limited;+91 832-6692042;info-in@syntegon.com
Nigeria;SY;SYN-PA-CF-PANG;Syntegon Technology;+41 58 674 7542;packaging-cf@syntegon.com
Netherlands;SY;SYN-PA-CF-PANL;Syntegon Packaging Solutions B.V.;+31 (0)495 574-000;info.packaging-wee@syntegon.com
Netherlands;SY;SYN-PA-CF-PANT;Syntegon Packaging Technology B.V.;+31 (0)104885899;info.packaging-sdm@syntegon.com
Singapore;SY;SYN-PA-CF-PASG;Syntegon Technology Singapore Pte. Ltd. ;+65 6746 0600;sales.packaging-sg@syntegon.com
South Africa;SY;SYN-PA-CF-PASZ;"Syntegon Technology South Africa (Pty) Ltd.";+2711 203 2090;info-mid@syntegon.com
South Africa;SY;SYN-PA-CF-PASZ-EAST;Syntegon Technology South Africa (Pty) Ltd.;+2711 203 2090;info-mid@syntegon.com
Nigeria;SY;SYN-PA-CF-PASZ-WEST;Syntegon Technology;+41 58 674 7542;packaging-cf@syntegon.com
Thailand;SY;SYN-PA-CF-PATH;Syntegon Technology (Thailand) Co., Ltd.;+65 6746 0600;info@syntegon.com
United States of America;SY1       ;SYN-PA-CF-PAUD;Syntegon Packaging Technology, LLC;+1 715 246 6511;sales.packaging-nrd@syntegon.com 
United States of America;SY4       ;SYN-PA-CF-PAUO;Osgood Industries, LLC (USA);+1 813 855 7337;sales.packaging-olr@syntegon.com
Brazil;SY;SYN-PA-CF-SAM-01;Syntegon Tecnologia de Embalagem Ltda.;+55 11 2117-6800;pabr@syntegon.com
India;SY;SYN-PA-CF-SEA-01;Syntegon Technology India Pte. Ltd.;+91 9820366608;Suneet.Gupta@syntegon.com
Singapore;SY;SYN-PA-CF-SEA-02;Syntegon Technology Singapore Pte. Ltd.;+66 (0)61 3852984 ;Panuwat.Chaikead@syntegon.com
Singapore;SY;SYN-PA-CF-SEA-03;Syntegon Technology Singapore Pte. Ltd.;+65 96306448;Vincent.Teo@syntegon.com
Singapore;SY;SYN-PA-CF-SEA-04;Syntegon Technology Singapore Pte. Ltd.;+65 97321529;Ian.Kok@syntegon.com
Singapore;SY;SYN-PA-CF-SEA-05;Syntegon Technology Singapore Pte. Ltd.;+65 8907 6300 ;Mick.Su@syntegon.com
Germany;SY;SYN-PA-CF-VI-CT;Syntegon Technology GmbH;+49 2162 248 304;filling.capping@syntegon.com
Germany;SY;SYN-PA-LF-PK-Wa;Syntegon Technology;+49 7151 14-2742;packaging-lf@syntegon.com
Germany;SY;SYN-PA-PH;Syntegon Technology;;packaging-ph@syntegon.com
Denmark;SY2       ;SYN-PA-PH-Denmark;Syntegon Technology - Sales Pharma Nordic;+45 (51) 386-413;Michael.Andersen@syntegon.com
United States of America;SY4;SYN-PA-PH-I2P-PANI;Syntegon Pharma Technology, LLC (Inspection Technology);+1 201 605 5146;Service-All@syntegon.com
Island;SY;SYN-PA-PH-Iceland;Syntegon Technology - Sales Pharma Nordic;+45 (51) 386-413;Michael.Andersen@syntegon.com
Norway;SY;SYN-PA-PH-Norway;Syntegon Technology - Sales Pharma Nordic;+45 (51) 386-413;Michael.Andersen@syntegon.com
Austria;SY;SYN-PA-PH-PAAT;SBM Schoeller-Bleckmann Medizintechnik GmbH;+43 2630 312 0;sales.sbm@syntegon.com
Panama;SY;SYN-PA-PH-PABR-BRAZIL;Syntegon Tecnologia de Embalagem Ltda;+55 (11) 99142 3875;pharma.latinamerica@syntegon.com
Panama;SY;SYN-PA-PH-PABR-MEX;Syntegon Tecnologia de Embalagem Ltda;+55 (11) 99142 3875;pharma.latinamerica@syntegon.com
Panama;SY;SYN-PA-PH-PABR-NORTH;Syntegon Tecnologia de Embalagem Ltda;+55 (11) 99142 3875;pharma.latinamerica@syntegon.com
Panama;SY;SYN-PA-PH-PABR-SOUTH;Syntegon Tecnologia de Embalagem Ltda;+55 (11) 99142 3875;pharma.latinamerica@syntegon.com
China P. R.;SY;SYN-PA-PH-PACN;Syntegon Technology;+86 (571)8726-5000;packaging.china@syntegon.com
Germany;SY4;SYN-PA-PH-PADD;Pharmatec GmbH;+49 351 282 78-0;pharmatec@syntegon.com
Germany;SY2       ;SYN-PA-PH-PADH;Hüttlin GmbH;+49 7622 6884-0;info.packaging-scm@syntegon.com
Denmark;SY1       ;SYN-PA-PH-PADK;Syntegon Technology A/S;+45 55 462 400;info-san@syntegon.com
Egypt;SY;SYN-PA-PH-PAEG;Syntegon Technology Ltd.;+20 (2)2265-0930;Mahmoud.Hamada@syntegon.com
United Kingdom;SY;SYN-PA-PH-PAGB;Syntegon Technology Ltd.;+44 1332 626 262;service.packaging.uk@syntegon.com
Japan;SY;SYN-PA-PH-PAJP;Syntegon Technology K.K.;+81 3 5466-2550;info.packaging.jp@syntegon.com
United States of America;SY;SYN-PA-PH-PANA;Syntegon Pharma Technology, LLC;+1 763 424 4700;info-mip@syntegon.com
Russia;SY;SYN-PA-PH-PARU;Syntegon Technology;;packaging-ph@syntegon.com
South Africa;SY;SYN-PA-PH-PASZ;Syntegon Technology South Africa (Pty) Ltd.;+2711 203 2090;info-mid@syntegon.com
Schweden;SY;SYN-PA-PH-Schweden;Syntegon Technology - Sales Pharma Nordic;+45 (51) 386-413;Michael.Andersen@syntegon.com
Israel;AG        ;TAGAD IL Haifa;Tagad Food Agencies Ltd.;+972 (4) 9118866;etziona@tagad.co.il
South Africa;AG;TCOM ZA Claremont West Cape;TCOM (PTY) LTD;+27 (0) 217906457;Pierre.Slabber@tcom-sa.co.za
Dom. Republic;AG        ;TECNO DO Santo Domingo;Tecno Empaque, S.R.L.;+1 809 732 3908;Efondeur@tecnoempaque.com
Germany;AG        ;TERRAMAR DE Hamburg;Terramar GmbH;+84 97 47 37 080;mail@terramar.de
Vietnam;AG        ;TERRAMAR_Vietnam;Terramar GmbH - Representative Vietnam;+848-391 532 09;team-v@terramar.com
Indonesia;AG        ;TIO NIAGA ID Jakarta;PT Tio Niaga Jaya Lestari;+62 21 5698 3880 ;info@tioniaga.com
Costa Rica;AG        ;TREE KINGS CR San José;The Three Kings S.A.;+506 8384 7741;Nemorera@racsa.co.cr
Czech Republic;AG        ;UGT CZ Praha 10 - Vrsovice;UGT Praha;+420 2 71746139;Turek@ugt-praha.com
Malaysia;AG        ;UNIPACK MY Shah Alam;UNIPACK AUTOMATION;;Unipack@tm.net.my
Korea;AG;YOUNGWOO KR Seoul;Youngwoo Trading Co.;+82 2 558-3451;Youngwooco@gmail.com
Thailand;AG;FLS SOLUTIONS TH Chonburi;FLS Solutions (Thailand) Co., Ltd.;+66 3 8494144;office.th@fls-projects.com